[
  {
    "type": "Burger",
    "menus": [
      {
        "id": "item1",
        "name": "Spicy Cheese Burger",
        "time": "20 mins",
        "price": 34000,
        "rating": 4.8
      },
      {
        "id": "item2",
        "name": "Chicken Salt Burger",
        "time": "15 mins",
        "price": 39000,
        "rating": 4.3
      },
      {
        "id": "item3",
        "name": "Beef Papprica Burger",
        "time": "18 mins",
        "price": 40000,
        "rating": 4.6
      },
      {
        "id": "item4",
        "name": "Jjangmyeon Chicken Burger",
        "time": "13 mins",
        "price": 38000,
        "rating": 4.9
      },
      {
        "id": "item5",
        "name": "Beef Burger",
        "time": "19 mins",
        "price": 29000,
        "rating": 4.1
      },
      {
        "id": "item6",
        "name": "Korean Tangy Burger",
        "time": "18 mins",
        "price": 50000,
        "rating": 4.3
      }
    ]
  },
  {
    "type": "Pizza",
    "menus": [
      {
        "id": "item7",
        "name": "Regular Splitza",
        "time": "20 mins",
        "price": 75000,
        "rating": 4.9
      },
      {
        "id": "item8",
        "name": "American Favorite",
        "time": "20 mins",
        "price": 80000,
        "rating": 4.4
      },
      {
        "id": "item9",
        "name": "Frankfuter BBQ",
        "time": "20 mins",
        "price": 100000,
        "rating": 4.8
      },
      {
        "id": "item10",
        "name": "Cheese Lover",
        "time": "23 mins",
        "price": 90000,
        "rating": 4.3
      },
      {
        "id": "item11",
        "name": "Veggie Garden",
        "time": "19 mins",
        "price": 98000,
        "rating": 4.5
      },
      {
        "id": "item12",
        "name": "Tuna Melt Pizza",
        "time": "18 mins",
        "price": 79000,
        "rating": 4.4
      }
    ]
  },
  {
    "type": "Bread",
    "menus": [
      {
        "id": "item13",
        "name": "Breadtato Vege",
        "time": "6 mins",
        "price": 12000,
        "rating": 4.9
      },
      {
        "id": "item14",
        "name": "Breadtato 'Moo'",
        "time": "5 mins",
        "price": 16000,
        "rating": 4.4
      },
      {
        "id": "item15",
        "name": "Breadtato 'Petok-Petok'",
        "time": "7 mins",
        "price": 14000,
        "rating": 4.8
      },
      {
        "id": "item16",
        "name": "Breadtato Egg Mayo",
        "time": "6 mins",
        "price": 13000,
        "rating": 4.3
      },
      {
        "id": "item17",
        "name": "Breadtato 'Thunini'",
        "time": "9 mins",
        "price": 12000,
        "rating": 4.5
      }
    ]
  },
  {
    "type": "Cake",
    "menus": [
      {
        "id": "item18",
        "name": "Chocolate Mocca Cake",
        "time": "36 mins",
        "price": 52000,
        "rating": 4.8
      },
      {
        "id": "item19",
        "name": "Blackforest Cake",
        "time": "35 mins",
        "price": 56000,
        "rating": 4.4
      },
      {
        "id": "item20",
        "name": "Mocca Coffee Cake",
        "time": "37 mins",
        "price": 54000,
        "rating": 4.8
      },
      {
        "id": "item21",
        "name": "Black Devil Cake",
        "time": "36 mins",
        "price": 53000,
        "rating": 4.3
      },
      {
        "id": "item22",
        "name": "Chocolate Vanilla",
        "time": "39 mins",
        "price": 52000,
        "rating": 4.5
      }
    ]
  }
]